Actividad01
…
library(tidyverse)
library(ggplot2)

#SEGUNDA ACTIVIDAD

En esta parte utilizaremos el dataset de nycflights13 la cual contiene datos de una aerolnea para todos los vuelos que salieron de Nueva York en 2013. Tambin incluye informacion til sobre aerolneas, aeropuertos, clima y aviones.

library(nycflights13)

daily <- flights %>%
  group_by(dest,day) %>%
  summarize(count = n())
daily

## # A tibble: 3,056 x 3
## # Groups:   dest [105]
##    dest    day count
##    <chr> <int> <int>
##  1 ABQ       1     8
##  2 ABQ       2     8
##  3 ABQ       3     8
##  4 ABQ       4     8
##  5 ABQ       5     8
##  6 ABQ       6     8
##  7 ABQ       7     8
##  8 ABQ       8     8
##  9 ABQ       9     8
## 10 ABQ      10     8
## # ... with 3,046 more rows
…
