EDA
…
## # A tibble: 1 x 3
##   mean_price median_price sd_price
##        <dbl>        <dbl>    <dbl>
## 1  11341851.      9450000 7709671.

Tenemos valores que estn muy a la derecha o muy a la izquierda. Esto se resuelve con el logaritmo

## # A tibble: 1 x 3
##   mean_mts_living median_mts_living sd_price_mts_living
##             <dbl>             <dbl>               <dbl>
## 1            193.              177.                85.3

## # A tibble: 21,613 x 2
##    log10_price log10_size
##          <dbl>      <dbl>
##  1        6.67       2.04
##  2        7.05       2.38
##  3        6.58       1.85
##  4        7.10       2.26
##  5        7.03       2.19
##  6        7.41       2.70
##  7        6.73       2.20
##  8        6.79       1.99
##  9        6.68       2.22
## 10        6.83       2.24
## # ... with 21,603 more rows
…
